Epoch,Time,LR,Training Loss,Validation Loss,V_EMD,Test Loss,T_EMD
0,7.1900000000000004,0.0003,0.021390669179623418,0.0067402932023548565,7.1600000000000037,0.1253851858514642,159.32000000000002
1,13.880000000000001,0.0003,0.005144182331245041,0.007202152486728585,12.160000000000007,0.1250486493938499,164.20000000000002
2,20.559999999999999,0.0003,0.0031778181327577187,0.005236414828054283,10.120000000000008,0.12213961293713914,186.04000000000005
3,27.199999999999999,0.0003,0.0032442057162593557,0.005659348817299242,11.720000000000002,0.12031060535578973,169.96000000000004
4,33.880000000000003,0.0003,0.0027484251746363094,0.003981153318739455,10.120000000000005,0.11904258710435695,192.20000000000002
5,40.539999999999999,0.0003,0.0025857981691962844,0.004807908087968826,11.200000000000003,0.11793162055786639,177.96000000000004
6,47.170000000000002,0.0003,0.002857941725590038,0.003630786385063244,7.7600000000000033,0.11770548050602277,196.03999999999999
7,53.829999999999998,0.0003,0.0028497447756136644,0.0036112322046866884,8.2000000000000064,0.1156179018037778,187.83999999999997
8,60.5,0.0003,0.0019019664515618165,0.0026794116205090413,5.0400000000000045,0.11434472894798668,192.83999999999997
9,67.129999999999995,0.0003,0.002036705394582999,0.002856208522723097,6.1200000000000028,0.11473312928149151,186.36000000000004
10,73.75,0.0003,0.0013497139196535397,0.002603095753685288,5.8800000000000061,0.11479620746381226,195.56000000000003
11,80.359999999999999,0.0003,0.0015753340722887584,0.002655202305227842,6.0400000000000027,0.11402159655791899,189.32000000000002
12,86.980000000000004,0.0003,0.001558643953549623,0.0023556571382948237,6.2000000000000028,0.11532148237650593,196.72
13,93.569999999999993,0.0003,0.0021970374586570236,0.0020649717341217656,4.8800000000000026,0.11552245472927415,201.32000000000002
14,100.19,0.0003,0.001315374308450253,0.0023263051255565624,4.5200000000000031,0.11475485182618575,199.20000000000002
15,106.8,0.0003,0.0012727239935764305,0.0026006021779840407,6.2000000000000046,0.11512197526023975,188.03999999999999
16,113.44,0.0003,0.001697629294797497,0.002602889723873333,6.4000000000000021,0.11758756758053861,196.72
17,120.05,0.0003,0.0021584692766960217,0.0028100640755956588,7.0400000000000027,0.11789864896693164,196.36000000000001
18,126.7,0.0003,0.0018348665106250853,0.002252258016201465,5.360000000000003,0.11432446465487518,190.03999999999996
19,133.36000000000001,0.0003,0.001146951397630509,0.002761821905353471,6.4400000000000022,0.11546103835165028,194.43999999999997
20,139.97999999999999,0.0003,0.0013944785943131824,0.0021756523106571126,5.3600000000000048,0.11705809451698784,210.88
21,146.59999999999999,0.0003,0.001575290990931878,0.002186291754934127,4.6800000000000006,0.11633064461842416,200.68000000000001
22,153.25,0.0003,0.0018445204016488959,0.002143719633433806,5.400000000000003,0.11825300294107624,198.95999999999998
23,159.84999999999999,0.0003,0.0010563364466059215,0.0018727025270219083,6.0000000000000036,0.11701672062987373,202.24000000000001
24,166.46000000000001,0.0003,0.001447328796307117,0.0018863541772589087,4.1999999999999993,0.1165672189718674,201.91999999999996
25,173.08000000000001,0.0003,0.0013900823668216548,0.00218996101403204,6.1600000000000055,0.11625241736570995,196.36000000000001
26,179.71000000000001,0.0003,0.0011951921064020047,0.0021392929661290154,4.5200000000000005,0.11742677297147494,200.59999999999999
27,186.34,0.0003,0.0014618373155277575,0.002397745852763562,5.8400000000000016,0.11707657080380217,198.88
28,192.94999999999999,0.0003,0.0010930007430153706,0.0018985645602578702,5.2000000000000028,0.11555790129516806,201.91999999999996
29,199.53,0.0003,0.0009374092041980475,0.0018931456902266843,6.4000000000000039,0.11662860324103681,203.0
30,206.18000000000001,5.9999999999999995e-05,0.0014166305495650104,0.0020199293098614917,4.4400000000000013,0.12030852149196324,205.39999999999998
31,212.84,5.9999999999999995e-05,0.0008199667153915145,0.0017768953491569214,5.4800000000000022,0.11620914915369616,200.27999999999994
32,219.47,5.9999999999999995e-05,0.0007395146223540716,0.0020571019520740147,5.0400000000000018,0.11954437132688268,204.79999999999995
33,226.08000000000001,5.9999999999999995e-05,0.0008169421088719249,0.0017534745806504202,4.4400000000000031,0.11662881079292486,202.35999999999999
34,232.75999999999999,5.9999999999999995e-05,0.0007886880740220219,0.0016934953214924621,5.1199999999999992,0.11790577062804784,203.35999999999996
35,239.41999999999999,5.9999999999999995e-05,0.0011530222781968988,0.0020088968221503105,4.4400000000000013,0.11983823604763501,202.63999999999999
36,246.00999999999999,5.9999999999999995e-05,0.0010338221695318044,0.0018140510402862792,5.8400000000000007,0.1179665703444727,201.59999999999999
37,252.63999999999999,5.9999999999999995e-05,0.0007045216081918761,0.0017193269399602127,5.3600000000000003,0.11817906446577538,201.96000000000001
38,259.31999999999999,5.9999999999999995e-05,0.0007046310355741847,0.001692912460345289,6.1600000000000001,0.11801004394267996,202.23999999999995
39,265.94999999999999,5.9999999999999995e-05,0.0008367716869062586,0.0019028150355038435,5.0800000000000036,0.12062377531436227,204.39999999999995
40,272.56999999999999,5.9999999999999995e-05,0.0007886693767329045,0.0019243210705968997,3.8000000000000029,0.11734781168135149,204.91999999999999
41,279.18000000000001,5.9999999999999995e-05,0.0011235860037454844,0.0015782285279229932,4.8000000000000025,0.11843203045132142,204.71999999999997
42,285.81,5.9999999999999995e-05,0.0007467282741585359,0.001807994852044984,4.6400000000000023,0.11879628747405988,202.83999999999997
43,292.45999999999998,5.9999999999999995e-05,0.0007832112493112086,0.0016920117448772426,4.6799999999999997,0.11838858453409067,203.15999999999997
44,299.07999999999998,5.9999999999999995e-05,0.0008899630816161351,0.0017111163444655097,3.7200000000000029,0.11854175049515944,204.71999999999997
45,305.69,5.9999999999999995e-05,0.0010042985720573135,0.0015828483080005517,4.8800000000000026,0.11749478367467721,202.11999999999998
46,312.31,5.9999999999999995e-05,0.0004986848348294789,0.001717012836192937,5.0400000000000009,0.11807970659777758,204.71999999999997
47,318.88999999999999,5.9999999999999995e-05,0.000620764763674365,0.0017627938245625599,5.2000000000000028,0.11822773341739935,202.35999999999999
48,325.51999999999998,5.9999999999999995e-05,0.0010302546228181113,0.0018459643217046623,5.3600000000000012,0.11931707037405835,203.79999999999995
49,332.13999999999999,5.9999999999999995e-05,0.0009309974881240501,0.0018591588140343842,5.4400000000000031,0.11973195919205272,208.83999999999997
50,338.74000000000001,5.9999999999999995e-05,0.0011060559339074523,0.0018476894094973154,4.6399999999999988,0.11841693038623484,201.03999999999996
51,345.37,5.9999999999999995e-05,0.0005591955211097023,0.0015406950791973782,3.8400000000000021,0.11763365035285316,204.07999999999998
52,351.97000000000003,5.9999999999999995e-05,0.0007209479004333569,0.0016819236536874719,5.7999999999999989,0.1188355873649319,206.07999999999998
53,358.56999999999999,5.9999999999999995e-05,0.0008813598902153624,0.001729462710816575,5.360000000000003,0.11865439591190172,206.23999999999998
54,365.20999999999998,5.9999999999999995e-05,0.0006154771006824273,0.001815117855110894,4.200000000000002,0.11779409969994237,202.72
55,371.77999999999997,5.9999999999999995e-05,0.0006765811899039929,0.0017226726100172686,6.4000000000000004,0.1184570964884072,202.39999999999998
56,378.39999999999998,5.9999999999999995e-05,0.0009847192592338993,0.0019183619980416868,5.0000000000000018,0.12099086204987197,207.31999999999999
57,385.04000000000002,5.9999999999999995e-05,0.0008419022606004837,0.002126034328956967,3.7999999999999963,0.11845085090617576,207.84000000000003
58,391.63999999999999,5.9999999999999995e-05,0.000687445508412806,0.0016151306361121976,3.8000000000000007,0.11848841813052931,202.88
59,398.25999999999999,5.9999999999999995e-05,0.0006163832146722718,0.0017485350633606963,5.8399999999999999,0.11937339182588316,203.95999999999998
60,404.89999999999998,1.2000000000000002e-05,0.0006925547509212574,0.0017370247363072374,4.4400000000000013,0.11953304181732828,204.47999999999999
61,411.51999999999998,1.2000000000000002e-05,0.0006367673096356843,0.0015789500371876943,3.8400000000000016,0.11883441802291643,205.92000000000002
62,418.16000000000003,1.2000000000000002e-05,0.0006369926918952568,0.001773384470573586,4.4400000000000031,0.1189293364092471,205.11999999999998
63,424.74000000000001,1.2000000000000002e-05,0.0005825493033900681,0.0017787633190417419,5.0000000000000018,0.11789416532135671,205.92000000000002
64,431.33999999999997,1.2000000000000002e-05,0.0010070304786083551,0.001580013832806245,4.4799999999999995,0.11810321770312768,204.35999999999993
65,437.95999999999998,1.2000000000000002e-05,0.000818675499242502,0.0016827762795045323,4.5600000000000005,0.11880007526645112,203.47999999999999
66,444.56999999999999,1.2000000000000002e-05,0.0006893587394514261,0.0017603020052142117,5.3600000000000021,0.11973244108496205,202.31999999999994
67,451.16000000000003,1.2000000000000002e-05,0.0006620478987933207,0.0017205674413834577,4.8400000000000016,0.11942589352469123,200.88
68,457.77999999999997,1.2000000000000002e-05,0.00045508333758609195,0.001775450447736227,4.0400000000000027,0.12007034367453011,202.79999999999998
69,464.38999999999999,1.2000000000000002e-05,0.0005444071847585223,0.0016339402342134197,5.3200000000000012,0.11918176757910895,205.35999999999999
70,470.99000000000001,1.2000000000000002e-05,0.0007161587639547059,0.0017272162241051378,4.6400000000000032,0.11847180147315302,203.07999999999998
71,477.57999999999998,1.2000000000000002e-05,0.0005850360354294403,0.001613815110075571,3.9600000000000026,0.11884239459380744,203.87999999999997
72,484.20999999999998,1.2000000000000002e-05,0.0011367587515983273,0.001608705902269677,3.3200000000000016,0.12109205780166482,207.87999999999997
73,490.80000000000001,1.2000000000000002e-05,0.0005370161574628239,0.0016033126385477574,4.2000000000000011,0.12028927119478347,206.88
74,497.43000000000001,1.2000000000000002e-05,0.0007355697653454043,0.0018143592726277268,4.799999999999998,0.1182488660653314,199.55999999999997
75,504.01999999999998,1.2000000000000002e-05,0.0006147129562758085,0.0016067156051892948,3.8800000000000008,0.12150509568256518,205.27999999999997
76,510.63,1.2000000000000002e-05,0.0004595068968691916,0.0017811328213176002,3.4400000000000008,0.12214184873219994,205.04000000000002
77,517.23000000000002,1.2000000000000002e-05,0.0007519978076606145,0.0018620015496550047,3.6400000000000019,0.12447030447600853,206.31999999999996
78,523.88,1.2000000000000002e-05,0.000653750195062526,0.0017709444864126651,3.6400000000000023,0.11876888148900536,204.55999999999997
79,530.51999999999998,1.2000000000000002e-05,0.0005995422447394614,0.0016755493023716238,4.8000000000000007,0.12140564001091415,205.23999999999998
