Epoch,Time,LR,Training Loss,Validation Loss,V_EMD,Test Loss,T_EMD
0,11.710000000000001,0.001,0.12488977951050567,0.058141204725876944,67.800000000000026,0.005041906526989294,92.600000000000009
1,22.879999999999999,0.001,0.07745756864261982,0.0533385240312493,6.6400000000000015,0.05988904266791755,101.08000000000001
2,34.119999999999997,0.001,0.048747277696251826,0.041537513961053346,8.4800000000000004,0.07327447390770316,112.75999999999999
3,45.710000000000001,0.001,0.044964622205622036,0.053185005490328896,14.440000000000001,0.09437123451567724,117.84
4,57.229999999999997,0.001,0.04426445093122311,0.038375206741146646,13.48,0.042081525621473916,89.52000000000001
5,68.659999999999997,0.001,0.04160878767023943,0.045962434538041816,8.3200000000000003,0.0703387363453007,100.08000000000001
6,80.159999999999997,0.001,0.0434265190726199,0.03945271538983759,10.440000000000001,0.04345211705203717,94.800000000000011
7,91.620000000000005,0.001,0.04224083973134508,0.03706318744310234,8.7199999999999989,0.07135481295439519,110.16
8,103.18000000000001,0.001,0.041695783111870034,0.03954398427590333,12.199999999999999,0.051209858129236,96.000000000000028
9,114.66,0.001,0.03949331707620083,0.047873629624832,16.879999999999999,0.08968300636320388,116.76000000000002
10,126.16,0.001,0.041134270117419706,0.04325685920255468,9.3200000000000038,0.06394103389078773,102.12
11,137.56,0.001,0.03789206873691662,0.034897507861447796,9.120000000000001,0.0762192692143811,106.44
12,148.59999999999999,0.001,0.03994274833729088,0.03171194434344818,12.16,0.06497452849538038,108.20000000000002
13,158.36000000000001,0.001,0.038443220048065996,0.028829223769701498,13.199999999999999,0.05624856374443151,102.44
14,168.13999999999999,0.001,0.03889424019011627,0.03165384184180555,17.240000000000002,0.05469847293643879,104.80000000000001
15,177.90000000000001,0.001,0.035003380212980446,0.03895862179342657,16.440000000000001,0.081126268259797,108.36000000000001
16,187.66999999999999,0.001,0.03271816158501844,0.05307187057494969,17.240000000000002,0.08687123034645908,112.72
17,197.43000000000001,0.001,0.03182537863341912,0.037878535348699977,15.84,0.0417189694686048,89.160000000000025
18,207.24000000000001,0.001,0.032105430227106393,0.03328976584120425,16.320000000000004,0.03902636395728012,92.680000000000007
19,217.08000000000001,0.001,0.029946109353411222,0.035696436880797836,14.480000000000004,0.043956191238614925,100.40000000000001
20,227.06999999999999,0.001,0.030816616397218735,0.02917456223216179,10.399999999999999,0.05081704657255758,93.760000000000019
21,236.83000000000001,0.001,0.028625303967683893,0.027159139357849537,10.120000000000001,0.044101213006725204,94.480000000000018
22,246.66999999999999,0.001,0.028484570616207995,0.04020895716728063,15.800000000000001,0.05343281092844589,103.24000000000001
23,256.44,0.001,0.030207810138976623,0.02993275899446218,15.600000000000001,0.045881035150316336,99.440000000000026
24,266.17000000000002,0.001,0.028779824250126363,0.02982529708637628,11.48,0.05429040250890358,100.08000000000001
25,275.92000000000002,0.001,0.028004846329250457,0.03533651419631545,17.199999999999999,0.07220799783522276,107.52000000000001
26,285.69999999999999,0.001,0.02797270013682216,0.03086092221066479,15.48,0.03584139437801343,88.920000000000016
27,295.60000000000002,0.001,0.02831749574232328,0.033785337915286325,15.880000000000003,0.04034959056413893,93.120000000000005
28,306.33999999999997,0.001,0.02939847150826774,0.04185279015457837,15.32,0.10947935885536972,118.08000000000001
29,316.74000000000001,0.001,0.027507107321897904,0.026482289318544235,12.120000000000001,0.05446121266791335,97.719999999999999
30,326.94999999999999,0.0002,0.024282255170460718,0.02972357754367373,14.720000000000002,0.034394775439128555,91.120000000000033
31,336.87,0.0002,0.024050300373346545,0.028955955964988036,13.879999999999999,0.03854354806891018,90.440000000000026
32,346.81,0.0002,0.02277317255753918,0.0301927737174679,13.68,0.031977275496796666,88.039999999999992
33,356.72000000000003,0.0002,0.023063449567747408,0.030470893182483385,12.840000000000003,0.04327213218705867,94.120000000000005
34,366.83999999999997,0.0002,0.022146286479586375,0.02890346275830629,12.120000000000001,0.03571217002847081,91.600000000000023
35,376.74000000000001,0.0002,0.02307105472151637,0.025491402213097803,11.720000000000002,0.038443586991545556,90.720000000000027
36,386.55000000000001,0.0002,0.022317688724301246,0.028080879641999026,14.080000000000002,0.03131211724447237,92.680000000000007
37,396.42000000000002,0.0002,0.02296673723851034,0.025261505851552925,13.32,0.04268754612645196,93.240000000000009
38,406.19,0.0002,0.0225203724912717,0.03197808549831936,13.32,0.04977851335131964,96.480000000000018
39,416.08999999999997,0.0002,0.02232835812934685,0.027067488717032438,14.039999999999999,0.041266089098663715,98.000000000000028
40,425.94999999999999,0.0002,0.022893388571240146,0.024671469062616098,12.48,0.035552369890540274,93.560000000000002
