Epoch,Time,LR,Training Loss,Validation Loss,V_EMD,Test Loss,T_EMD
0,7.2699999999999996,0.0003,0.09386141443589949,0.004805852436339078,30.680000000000007,0.13595327160631618,245.24000000000007
1,13.970000000000001,0.0003,0.08378008956897934,0.0048371883129458065,18.52,0.16061583379401811,190.15999999999997
2,20.620000000000001,0.0003,0.06971224608286372,0.004672052622165369,7.8000000000000043,0.17013618044762147,152.92000000000002
3,27.32,0.0003,0.05557559739868596,0.005015912566981886,4.120000000000001,0.1384545686019082,193.88000000000002
4,34.030000000000001,0.0003,0.04607848735209906,0.005704388326114934,4.2400000000000002,0.1233259530900608,206.92000000000002
5,40.710000000000001,0.0003,0.03477868641603668,0.005680892150849104,6.5600000000000058,0.12586996602337985,169.84000000000003
6,47.43,0.0003,0.02486165804472172,0.004590970555158413,4.360000000000003,0.11947250005508227,185.08000000000004
7,54.109999999999999,0.0003,0.0166405223766869,0.005244648569951887,6.2000000000000028,0.11372214152906386,189.59999999999999
8,60.82,0.0003,0.013666146795072083,0.004314691111769365,6.9600000000000026,0.11235139758459159,183.16
9,67.519999999999996,0.0003,0.012101286143626808,0.006460314515330221,9.5600000000000058,0.11619212586314433,176.96000000000004
10,74.219999999999999,0.0003,0.009867506092941424,0.014789736343790655,8.5200000000000067,0.1115003414008589,185.31999999999996
11,80.870000000000005,0.0003,0.009374525485876596,0.004069622757885119,7.0000000000000018,0.11463112852698754,174.20000000000002
12,87.549999999999997,0.0003,0.009281641179871446,0.004366521004830365,7.3200000000000038,0.10459333674479572,163.24000000000004
13,94.239999999999995,0.0003,0.011014904326073965,0.0034515984336157208,5.9600000000000009,0.10522307841373342,166.76000000000002
14,100.93000000000001,0.0003,0.007673659212535845,0.004926667305762353,8.6400000000000041,0.1021242682629871,160.12000000000003
15,107.59999999999999,0.0003,0.007022389052611477,0.004189112760207575,6.7200000000000042,0.10187579627843603,142.59999999999997
16,114.29000000000001,0.0003,0.0073106524332444064,0.0036696523792393828,8.1600000000000037,0.1030475263971658,164.64000000000001
17,120.97,0.0003,0.009444759130688771,0.006070487444167552,8.800000000000006,0.10578305355554062,160.08000000000004
18,127.69,0.0003,0.008346221607424459,0.003645935986676942,10.400000000000006,0.10380473375202172,156.56000000000003
19,134.36000000000001,0.0003,0.006138056771443138,0.003624537018249216,8.3200000000000021,0.10161562269878766,147.40000000000003
20,141.02000000000001,0.0003,0.006030935627179888,0.004710360582027099,9.8000000000000078,0.09963371247674029,160.68000000000001
21,147.75,0.0003,0.00585484413324662,0.0069830282793744754,9.6800000000000086,0.09880863236529487,158.36000000000001
22,154.44,0.0003,0.007789141344749984,0.003945356994138464,6.9200000000000053,0.10103908278757617,161.39999999999998
23,161.11000000000001,0.0003,0.005100694709053298,0.0048085421263037815,11.120000000000008,0.09940540415811397,155.48000000000002
24,167.81999999999999,0.0003,0.0064186062751654185,0.006693784673900708,10.920000000000009,0.09804898294221077,149.44000000000003
25,174.47,0.0003,0.004845959538558744,0.0028460041579344997,10.560000000000008,0.10051569244306949,153.00000000000003
26,181.15000000000001,0.0003,0.005441656801849604,0.0028636905810107355,10.200000000000008,0.09796503685148698,154.64000000000001
27,187.84,0.0003,0.005654578576005011,0.0031377225810580926,10.960000000000006,0.09755390692531826,152.96000000000001
28,194.52000000000001,0.0003,0.005080930466921824,0.0039175649214050045,9.6400000000000077,0.09919138294127253,151.96000000000004
29,201.22,0.0003,0.00489280509481312,0.002646762270318425,8.8400000000000052,0.0988337820440176,151.32000000000005
30,207.91,5.9999999999999995e-05,0.004766591631297795,0.0030593187649450874,10.040000000000006,0.09653978503590065,149.24000000000001
31,214.59,5.9999999999999995e-05,0.004140466816266472,0.0028096365732262316,10.080000000000007,0.09679554057647548,149.96000000000004
32,221.31,5.9999999999999995e-05,0.003976644517607846,0.0028308475106630635,10.200000000000006,0.09516189238500028,148.84
33,227.99000000000001,5.9999999999999995e-05,0.00404139086691979,0.002703508514020106,10.000000000000007,0.09622264779098923,150.88000000000002
34,234.66999999999999,5.9999999999999995e-05,0.003948127776208632,0.0027612621197476983,10.480000000000008,0.09574732469720026,147.64000000000001
35,241.38,5.9999999999999995e-05,0.004530105023767869,0.003137635583381938,10.480000000000008,0.09601109145238759,146.56
36,248.09,5.9999999999999995e-05,0.00470428554481774,0.0026593512207593608,10.160000000000007,0.09655942276327147,148.03999999999999
37,254.75999999999999,5.9999999999999995e-05,0.0038996672758586566,0.0028016314760822315,10.040000000000008,0.09604509446829085,146.59999999999999
38,261.44999999999999,5.9999999999999995e-05,0.003961510372014259,0.0026676391818277216,9.840000000000007,0.0970861263691433,148.07999999999998
39,268.14999999999998,5.9999999999999995e-05,0.0038060078898198763,0.002770816001271748,10.440000000000007,0.09567401878949669,146.72
40,274.81,5.9999999999999995e-05,0.0038664220823502204,0.002760139835553001,10.040000000000008,0.09551829531315774,147.56
41,281.50999999999999,5.9999999999999995e-05,0.004353411864700183,0.002848045485418128,11.440000000000008,0.09550264881302913,146.28
42,288.17000000000002,5.9999999999999995e-05,0.0040050123813825675,0.0027352336024784522,10.880000000000008,0.09489118440135841,146.16
43,294.88999999999999,5.9999999999999995e-05,0.0037598011549562216,0.002898636486624246,10.000000000000007,0.0955920098349452,147.0
44,301.56999999999999,5.9999999999999995e-05,0.004067429547848285,0.002600625562279121,9.3200000000000056,0.09467351756664732,148.71999999999997
45,308.24000000000001,5.9999999999999995e-05,0.004190093446698673,0.003156231837752073,9.2400000000000073,0.09400143737476023,147.12
46,314.91000000000003,5.9999999999999995e-05,0.003279106291713861,0.002826923686687065,10.760000000000005,0.094174181029851,145.04000000000005
47,321.60000000000002,5.9999999999999995e-05,0.00337726596681366,0.0028542617548500066,11.240000000000009,0.09446627922385695,144.72000000000003
48,328.30000000000001,5.9999999999999995e-05,0.004149817791328115,0.0027127749812991724,10.000000000000007,0.09514457895790064,147.12
49,335.00999999999999,5.9999999999999995e-05,0.003837169196351238,0.0028247149843398643,9.960000000000008,0.0935233442319764,147.08000000000004
50,341.69999999999999,5.9999999999999995e-05,0.003929830929440148,0.0026120107074308653,9.8000000000000078,0.09595965897102678,148.44
51,348.39999999999998,5.9999999999999995e-05,0.0034921624091506565,0.002716087478051043,10.360000000000005,0.0944213336407547,146.20000000000005
52,355.07999999999998,5.9999999999999995e-05,0.0034629398482447526,0.0027027619273766227,11.000000000000009,0.09472788474892103,146.24000000000001
53,361.77999999999997,5.9999999999999995e-05,0.003879184610614518,0.0029867248123754625,11.160000000000007,0.0950560083553668,146.36000000000001
54,368.45999999999998,5.9999999999999995e-05,0.0034523109184964648,0.0025466055831993403,10.160000000000007,0.09377506100350902,144.40000000000001
55,375.17000000000002,5.9999999999999995e-05,0.0035699025907922747,0.0027994954624496722,11.160000000000005,0.09315067061799623,143.47999999999999
56,381.85000000000002,5.9999999999999995e-05,0.00385581846305011,0.0030473103827756386,11.600000000000009,0.09291533899626561,142.48000000000002
57,388.56,5.9999999999999995e-05,0.003528618890756987,0.0025739233343578553,9.2800000000000065,0.09559604257256502,146.08000000000001
58,395.25999999999999,5.9999999999999995e-05,0.003482595973489982,0.00298768759239465,11.240000000000009,0.09318646480373684,143.19999999999999
59,401.94999999999999,5.9999999999999995e-05,0.003272849559028334,0.0028691698351631994,12.080000000000007,0.09366846301903327,143.16000000000003
60,408.64999999999998,1.2000000000000002e-05,0.00356375448458459,0.0028605213004123907,11.840000000000007,0.09296719598332567,142.56
61,415.35000000000002,1.2000000000000002e-05,0.0034519376031140673,0.002866856252734104,11.120000000000008,0.09355695863505678,144.32000000000002
62,422.06999999999999,1.2000000000000002e-05,0.003145307065251301,0.0027733605618224196,11.400000000000006,0.09294935729029397,144.64000000000004
63,428.75999999999999,1.2000000000000002e-05,0.003124075792378412,0.002708759563772575,10.88000000000001,0.0935568222258654,144.88000000000002
64,435.47000000000003,1.2000000000000002e-05,0.004161566996700921,0.002686145563569406,10.720000000000008,0.09335027983234752,144.88000000000002
65,442.16000000000003,1.2000000000000002e-05,0.0034459469497274114,0.002719342394772431,11.640000000000008,0.09318502509729966,143.12
66,448.83999999999997,1.2000000000000002e-05,0.0034957955248724176,0.002848335885969193,11.280000000000006,0.09289199997863126,143.68000000000001
67,455.52999999999997,1.2000000000000002e-05,0.0035718416505194496,0.002694206160452703,11.440000000000007,0.09331044440882073,143.20000000000002
68,462.24000000000001,1.2000000000000002e-05,0.003183537648270293,0.002660707697150824,11.20000000000001,0.09342828845339161,143.28000000000003
69,468.94,1.2000000000000002e-05,0.003231196646701615,0.0026326744270551462,10.88000000000001,0.09372987966274932,144.00000000000003
70,475.63999999999999,1.2000000000000002e-05,0.003682533907264752,0.002932389580604175,10.440000000000008,0.09403321768585889,144.44
71,482.36000000000001,1.2000000000000002e-05,0.0033477657553651987,0.0026291586539667587,10.600000000000009,0.09359058770277197,143.48000000000005
72,489.06,1.2000000000000002e-05,0.00388007135271042,0.0028729208076939635,10.600000000000007,0.0933534865681496,143.95999999999998
73,495.75999999999999,1.2000000000000002e-05,0.0030834873422171992,0.0026996955477997012,11.200000000000008,0.09331135135439653,142.96000000000001
74,502.42000000000002,1.2000000000000002e-05,0.0037195967194044366,0.003135495677428401,10.840000000000009,0.09467681716122324,142.47999999999999
75,509.13999999999999,1.2000000000000002e-05,0.0034431583590735244,0.002716528494720874,10.320000000000007,0.09303147826225512,143.24000000000007
76,515.79999999999995,1.2000000000000002e-05,0.002942121745842808,0.002798237503789689,10.840000000000007,0.09275337542954182,143.72000000000003
77,522.50999999999999,1.2000000000000002e-05,0.003494168546068359,0.00284005683320372,11.480000000000009,0.09305047751626089,142.40000000000001
78,529.19000000000005,1.2000000000000002e-05,0.003323000882102071,0.00283992524339777,10.760000000000009,0.09354355367314485,143.11999999999998
79,535.88,1.2000000000000002e-05,0.0032726570036930016,0.002664890737556245,10.960000000000008,0.09292060395495759,141.04000000000002
