Epoch,Time,LR,Training Loss,Validation Loss,V_EMD,Test Loss,T_EMD
0,11.859999999999999,0.001,0.05922029534977159,0.014340558493906846,16.440000000000005,0.14659790304846065,105.40000000000001
1,23.050000000000001,0.001,0.02710756927869896,0.004489936768853416,12.640000000000008,0.10977696302712928,133.48000000000002
2,34.469999999999999,0.001,0.02371911372260027,0.004203424425611191,10.560000000000002,0.11825250355979725,122.07999999999998
3,45.810000000000002,0.001,0.01981153479673551,0.002561369719673355,9.9600000000000044,0.1178672899456755,147.63999999999999
4,57.039999999999999,0.001,0.017716259803453028,0.002562680035986037,6.9200000000000026,0.1371399594133341,150.96000000000001
5,68.459999999999994,0.001,0.01657061334420768,0.0014781191585413079,6.4800000000000022,0.11551707810189445,162.52000000000004
6,79.450000000000003,0.001,0.017693094524082627,0.004106153440763512,9.8000000000000007,0.1429122708836311,167.00000000000003
7,90.510000000000005,0.001,0.015580650925210354,0.002566297822301098,5.5599999999999987,0.14135135034375346,152.40000000000001
8,101.65000000000001,0.001,0.014093040248381318,0.003966881131150256,9.1600000000000072,0.1436700429542648,146.96000000000001
9,112.88,0.001,0.012538325204017408,0.0033428484855138295,9.1200000000000028,0.10566006239676796,100.24000000000002
10,123.78,0.001,0.01348104464670619,0.004167702486051522,10.680000000000001,0.14159135658566033,138.92000000000002
11,134.78,0.001,0.013689805842357825,0.0031986908395227574,11.840000000000003,0.12484074944893213,125.72000000000001
12,146.31,0.001,0.015578224665763396,0.003710468464767652,8.6400000000000059,0.1073995403019336,114.0
13,157.36000000000001,0.001,0.013680289819465853,0.004028535115288773,11.28000000000001,0.14950904132571274,147.24000000000001
14,168.41999999999999,0.001,0.013607615962794483,0.0029753601055113915,7.4000000000000021,0.13927085434791195,125.28
15,179.80000000000001,0.001,0.01238361164051333,0.002360277962991764,9.0799999999999983,0.13485751343741595,142.47999999999999
16,190.84999999999999,0.001,0.015915362639694754,0.00266291481815533,9.9200000000000053,0.12178329837008088,143.16000000000003
17,201.83000000000001,0.001,0.013871867037532737,0.003922175209526522,6.9600000000000026,0.12830438971234515,95.320000000000007
18,213.41999999999999,0.001,0.01352709205600464,0.003907949883806331,12.200000000000003,0.11612726169104332,118.68000000000001
19,224.84999999999999,0.001,0.014693362186210432,0.0043613955253211,8.1200000000000028,0.14358800755505594,151.36000000000001
20,236.28999999999999,0.001,0.012906480011733258,0.004988636635752812,16.920000000000005,0.130994854174903,124.72000000000001
21,247.43000000000001,0.001,0.012299090039020326,0.00357507987684555,6.4399999999999995,0.13956386863166553,130.47999999999999
22,258.62,0.001,0.0134508837180232,0.0025692529000833,10.400000000000009,0.1545566111079658,151.59999999999999
23,269.94999999999999,0.001,0.010812302562518495,0.004939777977304035,6.7999999999999989,0.13770278173409614,118.72
24,281.04000000000002,0.001,0.011707781627553546,0.0035063314135186374,13.200000000000006,0.10743307857669945,109.64000000000001
25,292.29000000000002,0.001,0.012782788466633478,0.0024752536005483014,10.760000000000003,0.12329384739469014,103.68000000000004
26,303.81999999999999,0.001,0.013030799573079916,0.002668348245343061,8.8400000000000034,0.12101535705197371,108.32000000000002
27,314.66000000000003,0.001,0.013670594206077634,0.002756412248534298,9.8000000000000007,0.12065741336242462,113.04000000000001
28,325.76999999999998,0.001,0.013402783231902426,0.0024281498528202702,5.080000000000001,0.1201082578776387,133.92000000000002
29,337.06999999999999,0.001,0.011901356730062814,0.002780106805119908,7.9200000000000035,0.13082542864875682,129.48000000000002
30,348.35000000000002,0.0002,0.011267297652382316,0.0026438413268970477,7.759999999999998,0.13661294565234908,138.55999999999997
31,359.82999999999998,0.0002,0.010249692993017876,0.001738540231281398,6.0,0.1278543922469826,136.56
32,371.13,0.0002,0.009634322883788567,0.0040234766757087734,11.960000000000006,0.12834798559126276,143.72
33,382.49000000000001,0.0002,0.008496827648133833,0.0017420998298947298,7.2400000000000029,0.1257101241729989,130.91999999999999
34,393.45999999999998,0.0002,0.008228607815899996,0.002003358335655992,6.2400000000000002,0.12756255100190464,123.32000000000001
35,404.32999999999998,0.0002,0.007492744464811238,0.0021465260215336457,8.9600000000000044,0.13269186324892573,143.19999999999999
36,415.43000000000001,0.0002,0.0094834176562252,0.0013478697851620938,3.9999999999999991,0.12632186941192045,143.56000000000003
37,426.62,0.0002,0.00894424361143685,0.0017749895376682567,6.3600000000000021,0.11570716300060965,128.68000000000001
38,437.74000000000001,0.0002,0.009882958918027535,0.0013091714699342949,4.2000000000000028,0.12706234477104478,157.07999999999998
39,448.93000000000001,0.0002,0.00708925780595801,0.0014297429844673437,6.8800000000000008,0.1366199754283935,149.40000000000001
40,460.0,0.0002,0.009301472430021426,0.0017091001571942364,6.3199999999999958,0.12646114938155126,136.79999999999998
41,471.26999999999998,0.0002,0.008629437023994482,0.0018272720456385446,5.2799999999999958,0.13798078741969202,141.75999999999999
42,482.58999999999997,0.0002,0.010040475663859221,0.0021857200546668526,6.5600000000000041,0.1328944508527262,137.71999999999997
43,493.63,0.0002,0.007971558673252126,0.0017507972755237823,4.9599999999999991,0.13851168466638078,152.84
44,504.89999999999998,0.0002,0.007877302206958913,0.0017620554274009144,3.6800000000000015,0.12553887387806553,164.24000000000001
45,516.10000000000002,0.0002,0.009310715282015873,0.0020389664261623534,5.9600000000000009,0.11565734854798279,142.27999999999997
46,527.52999999999997,0.0002,0.0076035676863082016,0.0022514262918924884,7.7200000000000024,0.12430838682381518,168.92000000000004
47,538.39999999999998,0.0002,0.007399531951192347,0.001448934508944099,6.8400000000000016,0.12153712825169694,177.20000000000002
48,549.34000000000003,0.0002,0.008931123467009973,0.0019473475894713876,7.9600000000000026,0.11312819887201686,134.52000000000004
49,560.36000000000001,0.0002,0.0078915995909828,0.0016643549255992392,4.2400000000000002,0.11394909356534648,138.35999999999999
50,571.47000000000003,0.0002,0.007447133694832782,0.0019005134733953758,5.360000000000003,0.12768539411674049,160.60000000000002
51,582.79999999999995,0.0002,0.008375338026707533,0.0017908803451750007,6.360000000000003,0.11773566447182608,156.31999999999999
52,594.25999999999999,0.0002,0.007449214637883105,0.001610663359096691,7.4800000000000031,0.12059610507218457,148.00000000000003
53,605.40999999999997,0.0002,0.006979560962424644,0.0014697147273748624,3.879999999999999,0.12127138725834866,154.68000000000004
54,616.77999999999997,0.0002,0.007681017283623888,0.0020869976587725874,6.1199999999999992,0.13424427753607732,119.60000000000002
55,628.15999999999997,0.0002,0.00808694673296874,0.001558666687320073,6.4400000000000031,0.12073827573753874,137.27999999999997
56,639.05999999999995,0.0002,0.008171408371674339,0.0017318677807944354,6.6400000000000023,0.11999965727599152,143.60000000000002
57,649.89999999999998,0.0002,0.006470458784080784,0.0013752529397845405,6.0800000000000054,0.11309024532955714,136.16
58,660.82000000000005,0.0002,0.00802628524031521,0.0017531826165619261,6.9600000000000017,0.12195848066416808,142.59999999999999
59,671.91999999999996,0.0002,0.007808272238413613,0.0015644778998802756,5.5999999999999996,0.127300714697244,121.55999999999999
60,683.23000000000002,4.000000000000001e-05,0.007073794178619443,0.0013928414337385365,5.8000000000000025,0.11685687959695465,137.03999999999999
61,694.29999999999995,4.000000000000001e-05,0.007527117973639877,0.001505256355663792,6.5600000000000005,0.11856906608839413,148.36000000000001
62,705.86000000000001,4.000000000000001e-05,0.00666417734233593,0.001546445137902565,6.6800000000000033,0.12292362838065245,145.72
63,717.26999999999998,4.000000000000001e-05,0.006836001344424588,0.0013950233696959913,7.4000000000000004,0.12395152823403836,149.00000000000003
64,728.89999999999998,4.000000000000001e-05,0.006801759347736712,0.0015758829299631514,7.4000000000000004,0.12462520266701213,147.08000000000001
65,740.19000000000005,4.000000000000001e-05,0.006896862406802245,0.001957735200563259,5.8399999999999972,0.1357063259557874,138.28
66,751.90999999999997,4.000000000000001e-05,0.006615133084683962,0.0012662874750142199,5.1600000000000019,0.1278084039482139,153.24000000000001
67,763.25999999999999,4.000000000000001e-05,0.007449999924884862,0.0014245156247246389,6.7600000000000042,0.1284811730192769,138.68000000000001
68,774.89999999999998,4.000000000000001e-05,0.006845724002030012,0.001565847793880906,6.2800000000000029,0.13242128901709935,138.08000000000001
69,786.66999999999996,4.000000000000001e-05,0.006756583317949864,0.0015238818206475752,7.6800000000000033,0.13131582133804415,149.56
70,797.82000000000005,4.000000000000001e-05,0.0065884567664492594,0.0012949566328051994,4.7600000000000025,0.12974402182298223,145.63999999999999
71,808.78999999999996,4.000000000000001e-05,0.006734494570922989,0.001376107847270342,5.879999999999999,0.1305092908770995,142.03999999999999
72,820.40999999999997,4.000000000000001e-05,0.006669242007291536,0.0015308562331563219,6.6000000000000032,0.12667962777139027,136.64000000000001
73,832.24000000000001,4.000000000000001e-05,0.006707427789422935,0.0013366886575215196,5.5599999999999987,0.12826943336896232,145.56
74,844.09000000000003,4.000000000000001e-05,0.006315223232101455,0.0014817745809200286,6.8800000000000043,0.12988255056202908,142.80000000000001
75,855.39999999999998,4.000000000000001e-05,0.006634636131411537,0.0016417026939952004,5.1199999999999939,0.12719707771882632,138.16
76,866.97000000000003,4.000000000000001e-05,0.0073063248501962575,0.0015201482957940234,7.9600000000000009,0.12782170786623687,139.72
77,878.32000000000005,4.000000000000001e-05,0.00728836844198547,0.0014413484104061653,5.9200000000000017,0.1250540856325846,143.20000000000005
78,890.33000000000004,4.000000000000001e-05,0.006598661191829357,0.0020741188628001068,7.7200000000000024,0.1262523414159442,137.60000000000002
79,901.67999999999995,4.000000000000001e-05,0.007552765678229269,0.001293268185969292,5.4800000000000022,0.12554021469920884,144.56
80,912.87,4.000000000000001e-05,0.006632134404145976,0.001398759549946058,5.5200000000000031,0.1292818989439645,139.56
81,923.98000000000002,4.000000000000001e-05,0.006068994204366968,0.0014513932153216152,4.5199999999999996,0.12629192755256421,145.63999999999999
82,935.23000000000002,4.000000000000001e-05,0.007206964515087799,0.0014824536666071895,4.6000000000000014,0.12618969216249507,148.16000000000003
83,946.61000000000001,4.000000000000001e-05,0.006630434260440999,0.0015450733035372328,5.3600000000000012,0.12707616265539418,148.08000000000001
84,957.86000000000001,4.000000000000001e-05,0.007161210154947909,0.0015087797288347768,6.4399999999999995,0.12315098655819012,132.20000000000002
85,969.01999999999998,4.000000000000001e-05,0.005948938924948336,0.0016034525495322797,4.5599999999999969,0.11915007444573593,129.31999999999999
86,980.19000000000005,4.000000000000001e-05,0.00709480437569009,0.0017468521655047353,6.0799999999999965,0.12254333696893167,131.56
87,991.41999999999996,4.000000000000001e-05,0.006674377567281558,0.0016855999481955879,7.7200000000000042,0.12032917856007978,135.91999999999999
88,1002.36,4.000000000000001e-05,0.005507042965718205,0.0015090732271013513,5.5600000000000032,0.12315910256210603,143.00000000000003
89,1013.45,4.000000000000001e-05,0.006046250852123366,0.001506804444864036,5.5200000000000014,0.12483109815886329,134.24000000000001
90,1024.6700000000001,8.000000000000001e-06,0.00694632105310271,0.0013924115267057414,5.9599999999999991,0.12368330650413971,140.64000000000001
91,1036.1099999999999,8.000000000000001e-06,0.0062441024473417,0.001578432787162038,6.5199999999999942,0.1267361030230456,134.00000000000003
92,1047.6800000000001,8.000000000000001e-06,0.006580783854381035,0.001992462585232338,6.0799999999999983,0.12480103262237954,133.68000000000001
93,1059.3199999999999,8.000000000000001e-06,0.006618455598865728,0.0016972293405821599,6.5599999999999934,0.1255690820903207,134.60000000000002
94,1070.4200000000001,8.000000000000001e-06,0.007277754295707826,0.0013302594453590679,7.1999999999999975,0.12454914854101279,143.08000000000001
95,1081.8599999999999,8.000000000000001e-06,0.006292268522806527,0.001336499469821046,6.3200000000000021,0.12253114709234449,147.39999999999998
96,1093.29,8.000000000000001e-06,0.0058357981408800556,0.0014331411915361949,6.7199999999999989,0.12713861170555557,136.60000000000002
97,1105.8299999999999,8.000000000000001e-06,0.006277374855090391,0.0014181754698460321,6.0,0.12524891161237928,138.0
98,1117.26,8.000000000000001e-06,0.006187381194016159,0.0014866952580950717,6.0400000000000009,0.1232116741165623,131.72
99,1128.52,8.000000000000001e-06,0.006612845403884352,0.0016653242419522175,7.3999999999999977,0.12913111532755678,136.07999999999998
